A;8341;Adlešiči;;
;5270;Ajdovščina;;
;6280;Ankaran/Ancarano;;
;9253;Apače;;
;8253;Artiče;;
B;4275;Begunje na Gorenjskem;;
;1382;Begunje pri Cerknici;;
;9231;Beltinci;;
;2234;Benedikt;;
;2345;Bistrica ob Dravi;;
;3256;Bistrica ob Sotli;;
;8259;Bizeljsko;;
;1223;Blagovica;;
;8283;Blanca;;
;4260;Bled;;
;4273;Blejska Dobrava;;
;9265;Bodonci;;
;9222;Bogojina;;
;4263;Bohinjska Bela;;
;4264;Bohinjska Bistrica;;
;4265;Bohinjsko jezero;;
;1353;Borovnica;;
;8294;Boštanj;;
;5230;Bovec;;
;5295;Branik;;
;3314;Braslovče;;
;5223;Breginj;;
;8280;Brestanica;;
;2354;Bresternica;;
;4243;Brezje;;
;1351;Brezovica pri Ljubljani;;
;8250;Brežice;;
;4210;Brnik - Aerodrom;;
;8321;Brusnice;;
;3255;Buče;;
;8276;Bučka ;;
C;9261;Cankova;;
;3000;Celje ;;
;3001;Celje - poštni predali;;
;4207;Cerklje na Gorenjskem;;
;8263;Cerklje ob Krki;;
;1380;Cerknica;;
;5282;Cerkno;;
;2236;Cerkvenjak;;
;2215;Ceršak;;
;2326;Cirkovce;;
;2282;Cirkulane;;
;5273;Col;;
Č;8251;Čatež ob Savi;;
;1413;Čemšenik;;
;5253;Čepovan;;
;9232;Črenšovci;;
;2393;Črna na Koroškem;;
;6275;Črni Kal;;
;5274;Črni Vrh nad Idrijo;;
;5262;Črniče;;
;8340;Črnomelj;;
D;6271;Dekani;;
;5210;Deskle;;
;2253;Destrnik;;
;6215;Divača;;
;1233;Dob;;
;3224;Dobje pri Planini;;
;8257;Dobova;;
;1423;Dobovec;;
;5263;Dobravlje;;
;3204;Dobrna;;
;8211;Dobrnič;;
;1356;Dobrova;;
;9223;Dobrovnik/Dobronak ;;
;5212;Dobrovo v Brdih;;
;1431;Dol pri Hrastniku;;
;1262;Dol pri Ljubljani;;
;1273;Dole pri Litiji;;
;1331;Dolenja vas;;
;8350;Dolenjske Toplice;;
;1230;Domžale;;
;2252;Dornava;;
;5294;Dornberk;;
;1319;Draga;;
;8343;Dragatuš;;
;3222;Dramlje;;
;2370;Dravograd;;
;4203;Duplje;;
;6221;Dutovlje;;
;8361;Dvor;;
F;2343;Fala;;
;9208;Fokovci;;
;2313;Fram;;
;3213;Frankolovo;;
G;1274;Gabrovka;;
;8254;Globoko;;
;5275;Godovič;;
;4204;Golnik;;
;3303;Gomilsko;;
;4224;Gorenja vas;;
;3263;Gorica pri Slivnici;;
;2272;Gorišnica;;
;9250;Gornja Radgona;;
;3342;Gornji Grad;;
;4282;Gozd Martuljek;;
;6272;Gračišče;;
;9264;Grad;;
;8332;Gradac;;
;1384;Grahovo;;
;5242;Grahovo ob Bači;;
;5251;Grgar;;
;3302;Griže;;
;3231;Grobelno;;
;1290;Grosuplje;;
H;2288;Hajdina;;
;8362;Hinje;;
;2311;Hoče;;
;9205;Hodoš/Hodos;;
;1354;Horjul;;
;1372;Hotedršica;;
;1430;Hrastnik;;
;6225;Hruševje;;
;4276;Hrušica;;
I;5280;Idrija;;
;1292;Ig;;
;6250;Ilirska Bistrica;;
;6251;Ilirska Bistrica-Trnovo;;
;1295;Ivančna Gorica;;
;2259;Ivanjkovci;;
;1411;Izlake;;
;6310;Izola/Isola;;
J;2222;Jakobski Dol;;
;2221;Jarenina;;
;6254;Jelšane;;
;4270;Jesenice;;
;8261;Jesenice na Dolenjskem;;
;3273;Jurklošter;;
;2223;Jurovski Dol;;
;2256;Juršinci;;
K;5214;Kal nad Kanalom;;
;3233;Kalobje;;
;4246;Kamna Gorica;;
;2351;Kamnica;;
;1241;Kamnik;;
;5213;Kanal;;
;8258;Kapele;;
;2362;Kapla;;
;2325;Kidričevo;;
;1412;Kisovec;;
;6253;Knežak;;
;5222;Kobarid;;
;9227;Kobilje;;
;1330;Kočevje;;
;1338;Kočevska Reka;;
;2276;Kog;;
;5211;Kojsko;;
;6223;Komen;;
;1218;Komenda;;
;6000;Koper/Capodistria ;;
;6001;Koper/Capodistria - poštni predali;;
;8282;Koprivnica;;
;5296;Kostanjevica na Krasu;;
;8311;Kostanjevica na Krki;;
;1336;Kostel;;
;6256;Košana;;
;2394;Kotlje;;
;6240;Kozina;;
;3260;Kozje;;
;4000;Kranj ;;
;4001;Kranj - poštni predali;;
;4280;Kranjska Gora;;
;1281;Kresnice;;
;4294;Križe;;
;9206;Križevci;;
;9242;Križevci pri Ljutomeru;;
;1301;Krka;;
;8296;Krmelj;;
;4245;Kropa;;
;8262;Krška vas;;
;8270;Krško;;
;9263;Kuzma;;
L;2318;Laporje;;
;3270;Laško;;
;1219;Laze v Tuhinju;;
;2230;Lenart v Slovenskih goricah;;
;9220;Lendava/Lendva;;
;4248;Lesce;;
;3261;Lesično;;
;8273;Leskovec pri Krškem;;
;2372;Libeliče;;
;2341;Limbuš;;
;1270;Litija;;
;3202;Ljubečna;;
;1000;Ljubljana ;;
;1001;Ljubljana - poštni predali;;
;1231;Ljubljana - Črnuče;;
;1261;Ljubljana - Dobrunje;;
;1260;Ljubljana - Polje;;
;1210;Ljubljana - Šentvid;;
;1211;Ljubljana - Šmartno;;
;3333;Ljubno ob Savinji;;
;9240;Ljutomer;;
;3215;Loče;;
;5231;Log pod Mangartom;;
;1358;Log pri Brezovici;;
;1370;Logatec;;
;1371;Logatec;;
;1434;Loka pri Zidanem Mostu;;
;3223;Loka pri Žusmu;;
;6219;Lokev;;
;1318;Loški Potok;;
;2324;Lovrenc na Dravskem polju;;
;2344;Lovrenc na Pohorju;;
;3334;Luče;;
;1225;Lukovica;;
M;9202;Mačkovci;;
;2322;Majšperk;;
;2321;Makole;;
;9243;Mala Nedelja;;
;2229;Malečnik;;
;6273;Marezige;;
;2000;Maribor ;;
;2001;Maribor - poštni predali;;
;2206;Marjeta na Dravskem polju;;
;2281;Markovci;;
;9221;Martjanci;;
;6242;Materija;;
;4211;Mavčiče;;
;1215;Medvode;;
;1234;Mengeš;;
;8330;Metlika;;
;2392;Mežica;;
;2204;Miklavž na Dravskem polju;;
;2275;Miklavž pri Ormožu;;
;5291;Miren;;
;8233;Mirna;;
;8216;Mirna Peč;;
;2382;Mislinja;;
;4281;Mojstrana;;
;8230;Mokronog;;
;1251;Moravče;;
;9226;Moravske Toplice;;
;5216;Most na Soči;;
;1221;Motnik;;
;3330;Mozirje;;
;9000;Murska Sobota ;;
;9001;Murska Sobota - poštni predali;;
;2366;Muta;;
N;4202;Naklo;;
;3331;Nazarje;;
;1357;Notranje Gorice;;
;3203;Nova Cerkev;;
;5000;Nova Gorica ;;
;5001;Nova Gorica - poštni predali;;
;1385;Nova vas;;
;8000;Novo mesto;;
;8001;Novo mesto - poštni predali;;
O;6243;Obrov;;
;9233;Odranci;;
;2317;Oplotnica;;
;2312;Orehova vas;;
;2270;Ormož;;
;1316;Ortnek;;
;1337;Osilnica;;
;8222;Otočec;;
;2361;Ožbalt;;
P;2231;Pernica;;
;2211;Pesnica pri Mariboru;;
;9203;Petrovci;;
;3301;Petrovče;;
;6330;Piran/Pirano;;
;8255;Pišece;;
;6257;Pivka;;
;6232;Planina;;
;3225;Planina pri Sevnici;;
;6276;Pobegi;;
;8312;Podbočje;;
;5243;Podbrdo;;
;3254;Podčetrtek;;
;2273;Podgorci;;
;6216;Podgorje;;
;2381;Podgorje pri Slovenj Gradcu;;
;6244;Podgrad;;
;1414;Podkum;;
;2286;Podlehnik;;
;5272;Podnanos;;
;4244;Podnart;;
;3241;Podplat;;
;3257;Podsreda;;
;2363;Podvelka;;
;2208;Pohorje;;
;2257;Polenšak;;
;1355;Polhov Gradec;;
;4223;Poljane nad Škofjo Loko;;
;2319;Poljčane;;
;1272;Polšnik;;
;3313;Polzela;;
;3232;Ponikva;;
;6320;Portorož/Portorose;;
;6230;Postojna;;
;2331;Pragersko;;
;3312;Prebold;;
;4205;Preddvor;;
;6255;Prem;;
;1352;Preserje;;
;6258;Prestranek;;
;2391;Prevalje;;
;3262;Prevorje;;
;1276;Primskovo ;;
;3253;Pristava pri Mestinju;;
;9207;Prosenjakovci/Partosfalva;;
;5297;Prvačina;;
;2250;Ptuj;;
;2323;Ptujska Gora;;
;9201;Puconci;;
R;2327;Rače;;
;1433;Radeče;;
;9252;Radenci;;
;2360;Radlje ob Dravi;;
;1235;Radomlje;;
;4240;Radovljica;;
;8274;Raka;;
;1381;Rakek;;
;4283;Rateče - Planica;;
;2390;Ravne na Koroškem;;
;9246;Razkrižje;;
;3332;Rečica ob Savinji;;
;5292;Renče;;
;1310;Ribnica;;
;2364;Ribnica na Pohorju;;
;3272;Rimske Toplice;;
;1314;Rob;;
;5215;Ročinj;;
;3250;Rogaška Slatina;;
;9262;Rogašovci;;
;3252;Rogatec;;
;1373;Rovte;;
;2342;Ruše;;
S;1282;Sava;;
;6333;Sečovlje/Sicciole;;
;4227;Selca;;
;2352;Selnica ob Dravi;;
;8333;Semič;;
;8281;Senovo;;
;6224;Senožeče;;
;8290;Sevnica;;
;6210;Sežana;;
;2214;Sladki Vrh;;
;5283;Slap ob Idrijci;;
;2380;Slovenj Gradec;;
;2310;Slovenska Bistrica;;
;3210;Slovenske Konjice;;
;1216;Smlednik;;
;5232;Soča;;
;1317;Sodražica;;
;3335;Solčava;;
;5250;Solkan;;
;4229;Sorica;;
;4225;Sovodenj;;
;5281;Spodnja Idrija;;
;2241;Spodnji Duplek;;
;9245;Spodnji Ivanjci;;
;2277;Središče ob Dravi;;
;4267;Srednja vas v Bohinju;;
;8256;Sromlje ;;
;5224;Srpenica;;
;1242;Stahovica;;
;1332;Stara Cerkev;;
;8342;Stari trg ob Kolpi;;
;1386;Stari trg pri Ložu;;
;2205;Starše;;
;2289;Stoperce;;
;8322;Stopiče;;
;3206;Stranice;;
;8351;Straža;;
;1313;Struge;;
;8293;Studenec;;
;8331;Suhor;;
;2233;Sv. Ana v Slovenskih goricah;;
;2235;Sv. Trojica v Slovenskih goricah;;
;2353;Sveti Duh na Ostrem Vrhu;;
;9244;Sveti Jurij ob Ščavnici;;
;3264;Sveti Štefan;;
;2258;Sveti Tomaž;;
Š;9204;Šalovci;;
;5261;Šempas;;
;5290;Šempeter pri Gorici;;
;3311;Šempeter v Savinjski dolini;;
;4208;Šenčur;;
;2212;Šentilj v Slovenskih goricah;;
;8297;Šentjanž;;
;2373;Šentjanž pri Dravogradu;;
;8310;Šentjernej;;
;3230;Šentjur;;
;3271;Šentrupert;;
;8232;Šentrupert;;
;1296;Šentvid pri Stični;;
;8275;Škocjan;;
;6281;Škofije;;
;4220;Škofja Loka;;
;3211;Škofja vas;;
;1291;Škofljica;;
;6274;Šmarje;;
;1293;Šmarje - Sap;;
;3240;Šmarje pri Jelšah;;
;8220;Šmarješke Toplice;;
;2315;Šmartno na Pohorju;;
;3341;Šmartno ob Dreti;;
;3327;Šmartno ob Paki;;
;1275;Šmartno pri Litiji;;
;2383;Šmartno pri Slovenj Gradcu;;
;3201;Šmartno v Rožni dolini;;
;3325;Šoštanj;;
;6222;Štanjel;;
;3220;Štore;;
T;3304;Tabor;;
;3221;Teharje;;
;9251;Tišina;;
;5220;Tolmin;;
;3326;Topolšica;;
;2371;Trbonje;;
;1420;Trbovlje;;
;8231;Trebelno ;;
;8210;Trebnje;;
;5252;Trnovo pri Gorici;;
;2254;Trnovska vas;;
;1222;Trojane;;
;1236;Trzin;;
;4290;Tržič;;
;8295;Tržišče;;
;1311;Turjak;;
;9224;Turnišče;;
U;8323;Uršna sela;;
V;1252;Vače;;
;3320;Velenje ;;
;3322;Velenje - poštni predali;;
;8212;Velika Loka;;
;2274;Velika Nedelja;;
;9225;Velika Polana;;
;1315;Velike Lašče;;
;8213;Veliki Gaber;;
;9241;Veržej;;
;1312;Videm - Dobrepolje;;
;2284;Videm pri Ptuju;;
;8344;Vinica;;
;5271;Vipava;;
;4212;Visoko;;
;1294;Višnja Gora;;
;3205;Vitanje;;
;2255;Vitomarci;;
;1217;Vodice;;
;3212;Vojnik;;
;5293;Volčja Draga;;
;2232;Voličina;;
;3305;Vransko;;
;6217;Vremski Britof;;
;1360;Vrhnika;;
;2365;Vuhred;;
;2367;Vuzenica;;
Z;8292;Zabukovje ;;
;1410;Zagorje ob Savi;;
;1303;Zagradec;;
;2283;Zavrč;;
;8272;Zdole ;;
;4201;Zgornja Besnica;;
;2242;Zgornja Korena;;
;2201;Zgornja Kungota;;
;2316;Zgornja Ložnica;;
;2314;Zgornja Polskava;;
;2213;Zgornja Velka;;
;4247;Zgornje Gorje;;
;4206;Zgornje Jezersko;;
;2285;Zgornji Leskovec;;
;1432;Zidani Most;;
;3214;Zreče;;
Ž;4209;Žabnica;;
;3310;Žalec;;
;4228;Železniki;;
;2287;Žetale;;
;4226;Žiri;;
;4274;Žirovnica;;
;8360;Žužemberk;;
C;3505;Celje;Merkur;
;3600;Celje;Pošta Slovenije, PE Celje;
K;6503;Koper;Adriatic Slovenica, Zavarovalna družba;
;6502;Koper;Banka Koper;
;6504;Koper;Intereuropa ;
;6501;Koper;Luka Koper;
;6600;Koper;Pošta Slovenije, PE Koper;
;6200;Koper;Pošta Slovenije, PPP Koper;
;4600;Kranj;Pošta Slovenije, PE Kranj;
;4200;Kranj;Pošta Slovenije, PPP Šenčur;
;4502;Kranj;Sava;
L;1002;Ljubljana;Pošta Slovenije, PE PLC Ljubljana;
;1517;Ljubljana;Abanka Vipa;
;1505;Ljubljana;Banka Slovenije;
;1533;Ljubljana;BTC;
;1512;Ljubljana;Cankarjeva založba ;
;1524;Ljubljana;Carinarnica Ljubljana;
;1523;Ljubljana;Carinska uprava Republike Slovenije ;
;1522;Ljubljana;Chemo;
;1510;Ljubljana;Dnevnik ;
;1509;Ljubljana;Delo ;
;1538;Ljubljana;DZS ;
;1516;Ljubljana;Elektro Ljubljana;
;1528;Ljubljana;Emona ;
;1540;Ljubljana;EPPS - Elektronsko pismo Pošte Slovenije;
;1504;Ljubljana;Gospodarska zbornica Slovenije;
;1521;Ljubljana;Iskra Invest;
;1545;Ljubljana;Kanal A;
;1542;Ljubljana;KDD - Centralna klirinško depotna družba;
;1525;Ljubljana;Klinični center Ljubljana;
;1544;Ljubljana;Droga Kolinska;
;1514;Ljubljana;Kompas;
;1526;Ljubljana;Lek;
;1502;Ljubljana;Ministrstvo za finance;
;1501;Ljubljana;Ministrstvo za notranje zadeve;
;1535;Ljubljana;Ministrstvo za promet ;
;1536;Ljubljana;Mladinska knjiga Založba;
;1537;Ljubljana;Mobitel;
;1520;Ljubljana;Nova Ljubljanska banka;
;1534;Ljubljana;Okrajno sodišče v Ljubljani;
;1503;Ljubljana;Okrožno sodišče v Ljubljani;
;1527;Ljubljana;Petrol;
;1600;Ljubljana;Pošta Slovenije, PE Ljubljana;
;1550;Ljubljana;RTV Slovenija;
;1532;Ljubljana;Salamonov oglasnik;
;1513;Ljubljana;SKB banka;
;1511;Ljubljana;Slovenijales;
;1506;Ljubljana;Slovenske železnice;
;1519;Ljubljana;SPL Ljubljana;
;1543;Ljubljana;Športna loterija;
;1546;Ljubljana;Telekom Slovenije ;
;1547;Ljubljana;Telekom Slovenije, PE Ljubljana;
;1518;Ljubljana;ZPIZ, Zavod za pokoj. in inval. zav. Slov.;
;1507;Ljubljana;ZZZS, Zavod za zdrav. zav. Slov.;
;1529;Ljubljana;Žito;
M;2002;Maribor;Pošta Slovenije, PE PLC Maribor;
;2502;Maribor;DURS, Davčni urad Maribor;
;2509;Maribor;Elektro Maribor;
;2506;Maribor;Henkel Slovenija;
;2505;Maribor;Nova Kreditna banka Maribor;
;2503;Maribor;Okrožno sodišče v Mariboru;
;2508;Maribor;Okrajno sodišče v Mariboru;
;2500;Maribor;Pošta Slovenije, uprava;
;2600;Maribor;Pošta Slovenije, PE Maribor;
;2603;Maribor;Pošta Slovenije, PE PLC Maribor, Centralno skladišče;
;2609;Maribor;Pošta Slovenije, PE PLC Maribor, Paketni ekspedit ;
;2610;Maribor;Pošta Slovenije, Centralna RA pisarna;
;2501;Maribor;Upravna enota Maribor ;
;2504;Maribor;Večer;
;2507;Maribor;Zavarovalnica Maribor;
;9501;Murska Sobota;Mura;
;9600;Murska Sobota;Pošta Slovenije, PE Murska Sobota;
N;4501;Naklo;Merkur ;
;5600;Nova Gorica;Pošta Slovenije, PE Nova Gorica;
;8501;Novo mesto;Krka;
;8600;Novo mesto;Pošta Slovenije, PE Novo mesto;
R;9502;Radenci;Radenska d.d.;
V;3503;Velenje;Gorenje;
;3504;Velenje;ERA;
